[gd_resource type="SpatialMaterial" load_steps=4 format=2]

[ext_resource path="res://Assets/BrickFloor/black_brick_albedo.png" type="Texture" id=1]
[ext_resource path="res://Assets/BrickFloor/black_brick_orm.png" type="Texture" id=2]
[ext_resource path="res://Assets/BrickFloor/black_brick_normal.png" type="Texture" id=3]

[resource]
albedo_color = Color( 0.309804, 0.309804, 0.309804, 1 )
albedo_texture = ExtResource( 1 )
roughness_texture = ExtResource( 2 )
roughness_texture_channel = 1
normal_enabled = true
normal_scale = 1.0
normal_texture = ExtResource( 3 )
