[gd_scene load_steps=3 format=2]

[ext_resource path="res://Assets/Textures/Bricks/brick_thin_mortar_white_1/brick_thin_mortar_white_1.tres" type="Material" id=1]

[sub_resource type="PlaneMesh" id=1]

[node name="WhiteCeilingShiny" type="MeshInstance"]
transform = Transform( -1, 3.25841e-07, 0, -3.25841e-07, -1, 0, 0, 0, 1, 0, 0, 0 )
mesh = SubResource( 1 )
material/0 = ExtResource( 1 )
