[gd_scene format=2]

[node name="LightParent" type="Spatial"]

[node name="DirectionalLight" type="DirectionalLight" parent="."]
transform = Transform( 0.89823, 0.312595, 0.308978, -0.0254686, -0.664782, 0.746603, 0.438787, -0.678491, -0.589166, 0, 9.95493, 0 )
light_energy = 2.0
shadow_enabled = true
shadow_color = Color( 0.164706, 0.211765, 0.235294, 1 )
